Lab 14: Summarizing Data
…
males and females dont share resources and they feed away from their breeding territory

males and females share resources on their territory only during the breeding season

males and females share resources on their territory all year round.

clutch_size (dbl): average number of eggs produced per clutch

Notice that the last two variables are integer codes. They are stored as numbers but correspond to a category.

Summarizing the Data

Create a new dataset which summarizes everything to the level of a bird type using the group_summarize function:

## # A tibble: 169 x 26
##    type        egg_mass_mean male_mass_mean mating_system_me~ display_mean
##    <chr>               <dbl>          <dbl>             <dbl>        <dbl>
##  1 Accentor            2.13            21.4              1.00         1.00
##  2 Albatross         337             5672                2.00         3.00
##  3 Avadavat            0.960           10.0              4.00         1.00
##  4 Bee-eater           5.30            42.8              2.00         3.00
##  5 Bellbird            4.76            47.6              2.00         2.50
##  6 Bishop              1.66            25.5              4.00         3.00
##  7 Black-Cock~        31.4            646                2.00         1.25
##  8 Blackbird           4.99            73.1              3.33         2.67
##  9 Blackcap            2.19            18.1              2.00         3.00
## 10 Bluebonnet          5.20            93.7              2.00         1.00
## # ... with 159 more rows, and 21 more variables: resource_mean <dbl>,
## #   clutch_size_mean <dbl>, egg_mass_median <dbl>, male_mass_median <dbl>,
## #   mating_system_median <dbl>, display_median <dbl>,
## #   resource_median <dbl>, clutch_size_median <dbl>, egg_mass_sd <dbl>,
## #   male_mass_sd <dbl>, mating_system_sd <dbl>, display_sd <dbl>,
## #   resource_sd <dbl>, clutch_size_sd <dbl>, egg_mass_sum <dbl>,
## #   male_mass_sum <dbl>, mating_system_sum <int>, display_sum <int>,
## #   resource_sum <int>, clutch_size_sum <dbl>, n <int>
…
