Lab 10: Filtering Data
…
## # A tibble: 421 x 4
##    movie          type  word     minutes_in
##    <chr>          <chr> <chr>         <dbl>
##  1 Reservoir Dogs word  dick          0.400
##  2 Reservoir Dogs word  dicks         0.430
##  3 Reservoir Dogs word  fucked        0.550
##  4 Reservoir Dogs word  fucking       0.610
##  5 Reservoir Dogs word  bullshit      0.610
##  6 Reservoir Dogs word  fuck          0.660
##  7 Reservoir Dogs word  shit          0.900
##  8 Reservoir Dogs word  fuck          1.43 
##  9 Reservoir Dogs word  dicks         1.56 
## 10 Reservoir Dogs word  fuck          1.66 
## # ... with 411 more rows
…
## # A tibble: 469 x 4
##    movie        type  word    minutes_in
##    <chr>        <chr> <chr>        <dbl>
##  1 Pulp Fiction word  shit         0.520
##  2 Pulp Fiction word  fucking      0.820
##  3 Pulp Fiction word  fuck         1.37 
##  4 Pulp Fiction word  fucking      1.62 
##  5 Pulp Fiction word  fucking      1.73 
##  6 Pulp Fiction word  fucking      1.77 
##  7 Pulp Fiction word  fucking      2.18 
##  8 Pulp Fiction word  fuck         2.22 
##  9 Pulp Fiction word  gook         2.28 
## 10 Pulp Fiction word  fuckers      2.28 
## # ... with 459 more rows
…
## # A tibble: 890 x 4
##    movie          type  word     minutes_in
##    <chr>          <chr> <chr>         <dbl>
##  1 Reservoir Dogs word  dick          0.400
##  2 Reservoir Dogs word  dicks         0.430
##  3 Reservoir Dogs word  fucked        0.550
##  4 Reservoir Dogs word  fucking       0.610
##  5 Reservoir Dogs word  bullshit      0.610
##  6 Reservoir Dogs word  fuck          0.660
##  7 Reservoir Dogs word  shit          0.900
##  8 Reservoir Dogs word  fuck          1.43 
##  9 Reservoir Dogs word  dicks         1.56 
## 10 Reservoir Dogs word  fuck          1.66 
## # ... with 880 more rows
…
## # A tibble: 46 x 4
##    movie          type  word          minutes_in
##    <chr>          <chr> <chr>              <dbl>
##  1 Reservoir Dogs word  motherfucker        1.83
##  2 Reservoir Dogs word  motherfucker        3.93
##  3 Reservoir Dogs word  motherfucker        3.98
##  4 Reservoir Dogs word  motherfuckers      16.6 
##  5 Reservoir Dogs word  motherfucker       22.5 
##  6 Reservoir Dogs word  motherfucker       42.6 
##  7 Reservoir Dogs word  motherfucker       50.9 
##  8 Reservoir Dogs word  motherfucker       64.3 
##  9 Reservoir Dogs word  motherfucker       65.2 
## 10 Reservoir Dogs word  motherfucker       65.8 
## # ... with 36 more rows
…
