Lab 20: Linear Regression
…
Using the model in the previous question, what do you expect will be the price of a diamond with a depth of 50 that weights 2 carats?

## [1] 14465.5

Answer: The price would be 14465.5.

Are both of the slopes in the model statistically significant? What are their signs?

Answer: Yes, they both are statistically significant. The sign for depth is negative and the sign for carat is positive.

Use the add_prediction function to add predictions from this model back into the diamonds dataset.

## # A tibble: 53,940 x 12
##    carat cut       color clarity depth table price     x     y     z
##    <dbl> <chr>     <chr> <chr>   <dbl> <dbl> <int> <dbl> <dbl> <dbl>
##  1 0.230 Ideal     E     SI2      61.5  55.0   326  3.95  3.98  2.43
##  2 0.210 Premium   E     SI1      59.8  61.0   326  3.89  3.84  2.31
##  3 0.230 Good      E     VS1      56.9  65.0   327  4.05  4.07  2.31
##  4 0.290 Premium   I     VS2      62.4  58.0   334  4.20  4.23  2.63
##  5 0.310 Good      J     SI2      63.3  58.0   335  4.34  4.35  2.75
##  6 0.240 Very Good J     VVS2     62.8  57.0   336  3.94  3.96  2.48
##  7 0.240 Very Good I     VVS1     62.3  57.0   336  3.95  3.98  2.47
##  8 0.260 Very Good H     SI1      61.9  55.0   337  4.07  4.11  2.53
##  9 0.220 Fair      E     VS2      65.1  61.0   337  3.87  3.78  2.49
## 10 0.230 Very Good H     VS1      59.4  61.0   338  4.00  4.05  2.39
## # ... with 53,930 more rows, and 2 more variables: model_pred <dbl>,
## #   model_resid <dbl>
…
