Lab 24: Chicago Crime Data I
…
Take the dataset ca and calculate the sum of the variable num_households:

## [1] 1061928

Divide the sum of the theft variable by the sum of the number of households variable and multiply by 1000.

## [1] 36.55238

Describe what this means in words.

Answer: This means that for every thousand households, around 36 or 37 of them are victims of crimes categorized as thefts.

Use the filter function to construct a dataset temp consisting only of those rows in crimes that come from area_number 23. This is the area named Humboldt Park.

## # A tibble: 4,191 x 12
##    area_number arrest_flag domestic_flag night_flag burglary theft battery
##          <int>       <int>         <int>      <int>    <int> <int>   <int>
##  1          23           0             0          1        0     0       0
##  2          23           0             0          1        0     1       0
##  3          23           0             0          1        0     0       0
##  4          23           0             0          1        0     0       0
##  5          23           0             0          0        0     1       0
##  6          23           1             1          1        0     0       0
##  7          23           0             0          1        1     0       0
##  8          23           0             0          1        0     1       0
##  9          23           0             0          1        0     0       0
## 10          23           0             0          1        0     1       0
## # ... with 4,181 more rows, and 5 more variables: damage <int>,
## #   assault <int>, deception <int>, robbery <int>, narcotics <int>
…
